{
  "data": {
    "updated_at": "2021-04-18T11:22:39.231118848Z",
    "items": [
      {
        "token_holder": "0xe3953d9d317b834592ab58ab2c7a6ad22b54075d",
        "prev_balance": "129000000000000000000000000",
        "prev_block_height": 11000000,
        "next_balance": "129000002000000000000000000",
        "next_block_height": 12263776,
        "diff": "2000000000000000000"
      },
      {
        "token_holder": "0x4750c43867ef5f89869132eccf19b9b6c4286e1a",
        "prev_balance": "172000000000000000000000000",
        "prev_block_height": 11000000,
        "next_balance": "95687811643835616438356171",
        "next_block_height": 12263776,
        "diff": "-76312188356164383561643829"
      },
      {
        "token_holder": "0x4b4e140d1f131fdad6fb59c13af796fd194e4135",
        "prev_balance": "86000000000000000000000000",
        "prev_block_height": 11000000,
        "next_balance": "86000000000000000000000000",
        "next_block_height": 12263776,
        "diff": "0"
      },
      {
        "token_holder": "0x1a9c8182c09f50c8318d769245bea52c32be35bc",
        "prev_balance": "0",
        "prev_block_height": 11000000,
        "next_balance": "75792689356164383561643829",
        "next_block_height": 12263776,
        "diff": "75792689356164383561643829"
      },
      {
        "token_holder": "0x3d30b1ab88d487b0f3061f40de76845bec3f1e94",
        "prev_balance": "43000000000000000000000000",
        "prev_block_height": 11000000,
        "next_balance": "43000000000000000000000000",
        "next_block_height": 12263776,
        "diff": "0"
      },
      {
        "token_holder": "0x47173b170c64d16393a52e6c480b3ad8c302ba1e",
        "prev_balance": "0",
        "prev_block_height": 11000000,
        "next_balance": "30212328136918000000000000",
        "next_block_height": 12263776,
        "diff": "30212328136918000000000000"
      },
      {
        "token_holder": "0x0ec9e8aa56e0425b60dee347c8efbad959579d0f",
        "prev_balance": "0",
        "prev_block_height": 11000000,
        "next_balance": "21532653714000000000000000",
        "next_block_height": 12263776,
        "diff": "21532653714000000000000000"
      },
      {
        "token_holder": "0xb045fa6893b26807298e93377cbb92d7f37b19eb",
        "prev_balance": "0",
        "prev_block_height": 11000000,
        "next_balance": "19000000000000000000000000",
        "next_block_height": 12263776,
        "diff": "19000000000000000000000000"
      },
      {
        "token_holder": "0x090d4613473dee047c3f2706764f49e0821d256e",
        "prev_balance": "29146251783815000000000000",
        "prev_block_height": 11000000,
        "next_balance": "17992759771116000000000000",
        "next_block_height": 12263776,
        "diff": "-11153492012699000000000000"
      },
      {
        "token_holder": "0x878f0822a9e77c1dd7883e543747147be8d63c3b",
        "prev_balance": "0",
        "prev_block_height": 11000000,
        "next_balance": "17290572150000000000000000",
        "next_block_height": 12263776,
        "diff": "17290572150000000000000000"
      },
      {
        "token_holder": "0x7d2d43e63666f45b40316b44212325625dbaeb40",
        "prev_balance": "15281991040000000000000000",
        "prev_block_height": 11000000,
        "next_balance": "15281989990000000000000000",
        "next_block_height": 12263776,
        "diff": "-1050000000000000000"
      },
      {
        "token_holder": "0x5f246d7d19aa612d6718d27c1da1ee66859586b0",
        "prev_balance": "0",
        "prev_block_height": 11000000,
        "next_balance": "15000000000000000000000000",
        "next_block_height": 12263776,
        "diff": "15000000000000000000000000"
      },
      {
        "token_holder": "0x7d325a9c8f10758188641fe91cfd902499edc782",
        "prev_balance": "0",
        "prev_block_height": 11000000,
        "next_balance": "15000000000000000000000000",
        "next_block_height": 12263776,
        "diff": "15000000000000000000000000"
      },
      {
        "token_holder": "0xbe0eb53f46cd790cd13851d5eff43d12404d33e8",
        "prev_balance": "0",
        "prev_block_height": 11000000,
        "next_balance": "11122789122653539095850426",
        "next_block_height": 12263776,
        "diff": "11122789122653539095850426"
      },
      {
        "token_holder": "0x35a18000230da775cac24873d00ff85bccded550",
        "prev_balance": "1864374126692158251402559",
        "prev_block_height": 11000000,
        "next_balance": "10393421108635408047409335",
        "next_block_height": 12263776,
        "diff": "8529046981943249796006776"
      },
      {
        "token_holder": "0xe93381fb4c4f14bda253907b18fad305d799241a",
        "prev_balance": "11522237456944816000000000",
        "prev_block_height": 11000000,
        "next_balance": "10163477511914510000000000",
        "next_block_height": 12263776,
        "diff": "-1358759945030306000000000"
      },
      {
        "token_holder": "0x1be0217274ccb1d13cfb53c5d5f453e29ab2a66f",
        "prev_balance": "0",
        "prev_block_height": 11000000,
        "next_balance": "10000000000000000000000000",
        "next_block_height": 12263776,
        "diff": "10000000000000000000000000"
      },
      {
        "token_holder": "0xbf0d1c27bd8a05c5d7ac46f291e97e291eb5885e",
        "prev_balance": "0",
        "prev_block_height": 11000000,
        "next_balance": "9058500000000000000000000",
        "next_block_height": 12263776,
        "diff": "9058500000000000000000000"
      },
      {
        "token_holder": "0x973c877d5636e5cc6e15533ec440d52f299cdf9b",
        "prev_balance": "9000000000000000000000000",
        "prev_block_height": 11000000,
        "next_balance": "9000000000000000000000000",
        "next_block_height": 12263776,
        "diff": "0"
      },
      {
        "token_holder": "0xa371d95184127bf81d1e7281733eb94041e7eb8e",
        "prev_balance": "9000000000000000000000000",
        "prev_block_height": 11000000,
        "next_balance": "9000000000000000000000000",
        "next_block_height": 12263776,
        "diff": "0"
      },
      {
        "token_holder": "0x3cc3bf9b66f424a1632fac87b941cda71ad491b6",
        "prev_balance": "9000000000000000000000000",
        "prev_block_height": 11000000,
        "next_balance": "9000000000000000000000000",
        "next_block_height": 12263776,
        "diff": "0"
      },
      {
        "token_holder": "0x63b53181bdc48a9fbf1d23d461d3cfd82b0abc83",
        "prev_balance": "9000000000000000000000000",
        "prev_block_height": 11000000,
        "next_balance": "9000000000000000000000000",
        "next_block_height": 12263776,
        "diff": "0"
      },
      {
        "token_holder": "0xf731a187cb77d278b817939ce874741b074e3de8",
        "prev_balance": "0",
        "prev_block_height": 11000000,
        "next_balance": "9000000000000000000000000",
        "next_block_height": 12263776,
        "diff": "9000000000000000000000000"
      },
      {
        "token_holder": "0xa7e2067268901e118bbe0c132c17959c9ab929b6",
        "prev_balance": "9000000000000000000000000",
        "prev_block_height": 11000000,
        "next_balance": "9000000000000000000000000",
        "next_block_height": 12263776,
        "diff": "0"
      },
      {
        "token_holder": "0x177df24addc9a216f927d2a894ab0b6eec59eb09",
        "prev_balance": "9000000000000000000000000",
        "prev_block_height": 11000000,
        "next_balance": "9000000000000000000000000",
        "next_block_height": 12263776,
        "diff": "0"
      },
      {
        "token_holder": "0x030d6830dc8ff125850390da620fa3e12decd437",
        "prev_balance": "9000000000000000000000000",
        "prev_block_height": 11000000,
        "next_balance": "9000000000000000000000000",
        "next_block_height": 12263776,
        "diff": "0"
      },
      {
        "token_holder": "0xa29b574fea8d85b6c2a1b7071e6160212cf94097",
        "prev_balance": "0",
        "prev_block_height": 11000000,
        "next_balance": "9000000000000000000000000",
        "next_block_height": 12263776,
        "diff": "9000000000000000000000000"
      },
      {
        "token_holder": "0x69c5888ecd21287fbdac5a43d1558bf73c51e38b",
        "prev_balance": "9000000000000000000000000",
        "prev_block_height": 11000000,
        "next_balance": "9000000000000000000000000",
        "next_block_height": 12263776,
        "diff": "0"
      },
      {
        "token_holder": "0x1c1f02f1640e52b313f2d504b3c0c7ee8ad61108",
        "prev_balance": "0",
        "prev_block_height": 11000000,
        "next_balance": "9000000000000000000000000",
        "next_block_height": 12263776,
        "diff": "9000000000000000000000000"
      },
      {
        "token_holder": "0xa4c9492d5f1578911756a4f8463b45482deae37a",
        "prev_balance": "0",
        "prev_block_height": 11000000,
        "next_balance": "7900000000000000000000000",
        "next_block_height": 12263776,
        "diff": "7900000000000000000000000"
      },
      {
        "token_holder": "0xd993a7685fd22483e801404f8cb57981190e5bde",
        "prev_balance": "0",
        "prev_block_height": 11000000,
        "next_balance": "6317856057000000000000000",
        "next_block_height": 12263776,
        "diff": "6317856057000000000000000"
      },
      {
        "token_holder": "0x50796ba0f82eef414d7b609bbdd8a5c9a785e77d",
        "prev_balance": "0",
        "prev_block_height": 11000000,
        "next_balance": "5500000000000000000000000",
        "next_block_height": 12263776,
        "diff": "5500000000000000000000000"
      },
      {
        "token_holder": "0x903ca2a612326c7ea3bee9362ba8e8b1321cd14b",
        "prev_balance": "0",
        "prev_block_height": 11000000,
        "next_balance": "5440998088549120000000000",
        "next_block_height": 12263776,
        "diff": "5440998088549120000000000"
      },
      {
        "token_holder": "0xc52f8618ef7986ed7b47b4337b2249dea857ae4e",
        "prev_balance": "0",
        "prev_block_height": 11000000,
        "next_balance": "5109427850000000000000000",
        "next_block_height": 12263776,
        "diff": "5109427850000000000000000"
      },
      {
        "token_holder": "0x5624ed8a6c7eb91cba94a02eeb2d1c24dec6732d",
        "prev_balance": "0",
        "prev_block_height": 11000000,
        "next_balance": "5000000049940000000000000",
        "next_block_height": 12263776,
        "diff": "5000000049940000000000000"
      },
      {
        "token_holder": "0xbb0dd3b2745fa1219ea5a305bcba8467ffc33133",
        "prev_balance": "0",
        "prev_block_height": 11000000,
        "next_balance": "5000000000000000000000000",
        "next_block_height": 12263776,
        "diff": "5000000000000000000000000"
      },
      {
        "token_holder": "0x7f256695627c44e423139ec172393ecdc8a3de24",
        "prev_balance": "0",
        "prev_block_height": 11000000,
        "next_balance": "5000000000000000000000000",
        "next_block_height": 12263776,
        "diff": "5000000000000000000000000"
      },
      {
        "token_holder": "0xa16d450b6f3f6f7c142c5de3f65d2b0230446e01",
        "prev_balance": "0",
        "prev_block_height": 11000000,
        "next_balance": "5000000000000000000000000",
        "next_block_height": 12263776,
        "diff": "5000000000000000000000000"
      },
      {
        "token_holder": "0x4d7b61fce7716f2d91872a21ba131365273baec4",
        "prev_balance": "0",
        "prev_block_height": 11000000,
        "next_balance": "5000000000000000000000000",
        "next_block_height": 12263776,
        "diff": "5000000000000000000000000"
      },
      {
        "token_holder": "0x89707bbfddab8f1539720ed9decc853ffe71ec2b",
        "prev_balance": "5000000000000000000000000",
        "prev_block_height": 11000000,
        "next_balance": "5000000000000000000000000",
        "next_block_height": 12263776,
        "diff": "0"
      },
      {
        "token_holder": "0xb47544788024b497a7998671bd5aedca566921fc",
        "prev_balance": "0",
        "prev_block_height": 11000000,
        "next_balance": "4500000000000000000000000",
        "next_block_height": 12263776,
        "diff": "4500000000000000000000000"
      },
      {
        "token_holder": "0x6a18a2c1324e6ae2895c7391f73edd0bd4bc4fb1",
        "prev_balance": "0",
        "prev_block_height": 11000000,
        "next_balance": "4311814286000000000000000",
        "next_block_height": 12263776,
        "diff": "4311814286000000000000000"
      },
      {
        "token_holder": "0x4c6007e38ce164ed80ff8ff94192225fcdac68cd",
        "prev_balance": "0",
        "prev_block_height": 11000000,
        "next_balance": "4252571915880518761123815",
        "next_block_height": 12263776,
        "diff": "4252571915880518761123815"
      },
      {
        "token_holder": "0xa51632ab150336d77ed8b3d4b107dfaedd223b23",
        "prev_balance": "0",
        "prev_block_height": 11000000,
        "next_balance": "4155532000000000000000000",
        "next_block_height": 12263776,
        "diff": "4155532000000000000000000"
      },
      {
        "token_holder": "0xf8371eae0ba28281f350d2fd936f98bf58c31419",
        "prev_balance": "0",
        "prev_block_height": 11000000,
        "next_balance": "3438023049832160000000000",
        "next_block_height": 12263776,
        "diff": "3438023049832160000000000"
      },
      {
        "token_holder": "0xa29332b560103d52f758b978e0661420a9d40cb5",
        "prev_balance": "5441015278664370000000000",
        "prev_block_height": 11000000,
        "next_balance": "3400634549165230000000000",
        "next_block_height": 12263776,
        "diff": "-2040380729499140000000000"
      },
      {
        "token_holder": "0xd3d2e2692501a5c9ca623199d38826e513033a17",
        "prev_balance": "6564768542258257598435902",
        "prev_block_height": 11000000,
        "next_balance": "3399754143504058188906293",
        "next_block_height": 12263776,
        "diff": "-3165014398754199409529609"
      },
      {
        "token_holder": "0x6cc5f688a315f3dc28a7781717a9a798a59fda7b",
        "prev_balance": "2775392216989190115776889",
        "prev_block_height": 11000000,
        "next_balance": "3287180764736272895572156",
        "next_block_height": 12263776,
        "diff": "511788547747082779795267"
      },
      {
        "token_holder": "0x7fd805e2852113e8167c701b43ead86364e800b9",
        "prev_balance": "0",
        "prev_block_height": 11000000,
        "next_balance": "3231498000000000000000000",
        "next_block_height": 12263776,
        "diff": "3231498000000000000000000"
      },
      {
        "token_holder": "0x39d8014b4f40d2cbc441137011d32023f4f1fd87",
        "prev_balance": "0",
        "prev_block_height": 11000000,
        "next_balance": "3046292953820153272649293",
        "next_block_height": 12263776,
        "diff": "3046292953820153272649293"
      },
      {
        "token_holder": "0x47ac0fb4f2d84898e4d9e7b4dab3c24507a6d503",
        "prev_balance": "0",
        "prev_block_height": 11000000,
        "next_balance": "3000000000000000000000000",
        "next_block_height": 12263776,
        "diff": "3000000000000000000000000"
      },
      {
        "token_holder": "0xb944020ec109f54b9899249661cfc09049834a95",
        "prev_balance": "0",
        "prev_block_height": 11000000,
        "next_balance": "2500000000000000000000000",
        "next_block_height": 12263776,
        "diff": "2500000000000000000000000"
      },
      {
        "token_holder": "0x5de917023f7d8f0732e6e6de9b65a31dfa070c0c",
        "prev_balance": "0",
        "prev_block_height": 11000000,
        "next_balance": "2500000000000000000000000",
        "next_block_height": 12263776,
        "diff": "2500000000000000000000000"
      },
      {
        "token_holder": "0x81451ea5e6ea25829a4af736efceb9e74e09a1b3",
        "prev_balance": "0",
        "prev_block_height": 11000000,
        "next_balance": "2500000000000000000000000",
        "next_block_height": 12263776,
        "diff": "2500000000000000000000000"
      },
      {
        "token_holder": "0x8608343b7987d903bb720d9425a8be54de48f1d3",
        "prev_balance": "0",
        "prev_block_height": 11000000,
        "next_balance": "2500000000000000000000000",
        "next_block_height": 12263776,
        "diff": "2500000000000000000000000"
      },
      {
        "token_holder": "0x00f58119e84ca2bbbb64af698cfcf1ba123d8aeb",
        "prev_balance": "0",
        "prev_block_height": 11000000,
        "next_balance": "2500000000000000000000000",
        "next_block_height": 12263776,
        "diff": "2500000000000000000000000"
      },
      {
        "token_holder": "0x3e0d86c74380c90063724f4c490fddce4387d22b",
        "prev_balance": "0",
        "prev_block_height": 11000000,
        "next_balance": "2500000000000000000000000",
        "next_block_height": 12263776,
        "diff": "2500000000000000000000000"
      },
      {
        "token_holder": "0xe516d61ed4415f24606ddc14b3445dabf39d3498",
        "prev_balance": "0",
        "prev_block_height": 11000000,
        "next_balance": "2500000000000000000000000",
        "next_block_height": 12263776,
        "diff": "2500000000000000000000000"
      },
      {
        "token_holder": "0xe8043f57c4626ba6b5892b89f95bb357ee38be9e",
        "prev_balance": "0",
        "prev_block_height": 11000000,
        "next_balance": "2500000000000000000000000",
        "next_block_height": 12263776,
        "diff": "2500000000000000000000000"
      },
      {
        "token_holder": "0x201d252fa4dd34744162d1dbc9063e2b6fc7ab01",
        "prev_balance": "0",
        "prev_block_height": 11000000,
        "next_balance": "2500000000000000000000000",
        "next_block_height": 12263776,
        "diff": "2500000000000000000000000"
      },
      {
        "token_holder": "0xe4dce5888216b3d7595764c39ba31c1d910f6a66",
        "prev_balance": "0",
        "prev_block_height": 11000000,
        "next_balance": "2500000000000000000000000",
        "next_block_height": 12263776,
        "diff": "2500000000000000000000000"
      },
      {
        "token_holder": "0x51649d78ab235a934ae5c213d741fc58f2a37f91",
        "prev_balance": "0",
        "prev_block_height": 11000000,
        "next_balance": "2500000000000000000000000",
        "next_block_height": 12263776,
        "diff": "2500000000000000000000000"
      },
      {
        "token_holder": "0xdb6f3e2d9670d45b45082a8a8aea0576305d05c3",
        "prev_balance": "0",
        "prev_block_height": 11000000,
        "next_balance": "2500000000000000000000000",
        "next_block_height": 12263776,
        "diff": "2500000000000000000000000"
      },
      {
        "token_holder": "0x1442b96bfee50deee97c3d5804890adc053ea7d1",
        "prev_balance": "0",
        "prev_block_height": 11000000,
        "next_balance": "2500000000000000000000000",
        "next_block_height": 12263776,
        "diff": "2500000000000000000000000"
      },
      {
        "token_holder": "0xae7559ccd15208c622e8313bbf650f395fc051c2",
        "prev_balance": "0",
        "prev_block_height": 11000000,
        "next_balance": "2500000000000000000000000",
        "next_block_height": 12263776,
        "diff": "2500000000000000000000000"
      },
      {
        "token_holder": "0x2c03d6aba12b3f33655184488492f164aeff6098",
        "prev_balance": "0",
        "prev_block_height": 11000000,
        "next_balance": "2493363096465443846829913",
        "next_block_height": 12263776,
        "diff": "2493363096465443846829913"
      },
      {
        "token_holder": "0xae5065a42b422c5c53ee48c034247591960233b4",
        "prev_balance": "0",
        "prev_block_height": 11000000,
        "next_balance": "2300000000000000000000000",
        "next_block_height": 12263776,
        "diff": "2300000000000000000000000"
      },
      {
        "token_holder": "0xe79057088a15ac8c9c8bec3b90bd9891a1b3af51",
        "prev_balance": "2239701397804440000000000",
        "prev_block_height": 11000000,
        "next_balance": "2241420112475730142908873",
        "next_block_height": 12263776,
        "diff": "1718714671290142908873"
      },
      {
        "token_holder": "0x0739e7abe029434c4357e247a397d80b64301ef9",
        "prev_balance": "0",
        "prev_block_height": 11000000,
        "next_balance": "2149576268800000000000000",
        "next_block_height": 12263776,
        "diff": "2149576268800000000000000"
      },
      {
        "token_holder": "0x8328a42a583d4812268c4dd63ae2f77f37a6b4f3",
        "prev_balance": "0",
        "prev_block_height": 11000000,
        "next_balance": "2149000161506530000000000",
        "next_block_height": 12263776,
        "diff": "2149000161506530000000000"
      },
      {
        "token_holder": "0x2d5ec2c21e343389c04613030194094105f7872c",
        "prev_balance": "2080000000000000000000000",
        "prev_block_height": 11000000,
        "next_balance": "2080000000000000000000000",
        "next_block_height": 12263776,
        "diff": "0"
      },
      {
        "token_holder": "0xf319b6a95e29122967892f13d3320d21611a0a65",
        "prev_balance": "0",
        "prev_block_height": 11000000,
        "next_balance": "2040380729499140000000000",
        "next_block_height": 12263776,
        "diff": "2040380729499140000000000"
      },
      {
        "token_holder": "0xb93b36f305464761abdbd01d7731d4ba496fb6fb",
        "prev_balance": "2000000000000000000000000",
        "prev_block_height": 11000000,
        "next_balance": "2000000000000000000000000",
        "next_block_height": 12263776,
        "diff": "0"
      },
      {
        "token_holder": "0xa929022c9107643515f5c777ce9a910f0d1e490c",
        "prev_balance": "0",
        "prev_block_height": 11000000,
        "next_balance": "1728021300000000000000000",
        "next_block_height": 12263776,
        "diff": "1728021300000000000000000"
      },
      {
        "token_holder": "0x3f5ce5fbfe3e9af3971dd833d26ba9b5c936f0be",
        "prev_balance": "23470457286658852966005703",
        "prev_block_height": 11000000,
        "next_balance": "1672461775187656005231598",
        "next_block_height": 12263776,
        "diff": "-21797995511471196960774105"
      },
      {
        "token_holder": "0x087256f28f0d9762b89d4549301df4b7e7b5cda3",
        "prev_balance": "0",
        "prev_block_height": 11000000,
        "next_balance": "1600000000000000000000000",
        "next_block_height": 12263776,
        "diff": "1600000000000000000000000"
      },
      {
        "token_holder": "0x887bdd7792398626837bdcc48b20423ce1d305cc",
        "prev_balance": "1600000000000000000000000",
        "prev_block_height": 11000000,
        "next_balance": "1600000000000000000000000",
        "next_block_height": 12263776,
        "diff": "0"
      },
      {
        "token_holder": "0x4f71a116b1e3d7cd0f4cd99fba7c7d8908b2323c",
        "prev_balance": "0",
        "prev_block_height": 11000000,
        "next_balance": "1541834913400000000000000",
        "next_block_height": 12263776,
        "diff": "1541834913400000000000000"
      },
      {
        "token_holder": "0x3bc3a58b4fc1cbe7e98bb4ab7c99535e8ba9b8f1",
        "prev_balance": "0",
        "prev_block_height": 11000000,
        "next_balance": "1501861322847092416388039",
        "next_block_height": 12263776,
        "diff": "1501861322847092416388039"
      },
      {
        "token_holder": "0xdb305aefd04fdd47cf9d6b88902714855684d531",
        "prev_balance": "1500000000000000000000000",
        "prev_block_height": 11000000,
        "next_balance": "1500000000000000000000000",
        "next_block_height": 12263776,
        "diff": "0"
      },
      {
        "token_holder": "0x6f0287171b9880bc42aea7c6809900c396decd36",
        "prev_balance": "1440400021701000000000000",
        "prev_block_height": 11000000,
        "next_balance": "1434999021701000000000000",
        "next_block_height": 12263776,
        "diff": "-5401000000000000000000"
      },
      {
        "token_holder": "0x742d35cc6634c0532925a3b844bc454e4438f44e",
        "prev_balance": "43760068540000000000000",
        "prev_block_height": 11000000,
        "next_balance": "1320832965420000000000000",
        "next_block_height": 12263776,
        "diff": "1277072896880000000000000"
      },
      {
        "token_holder": "0xb9d7cb55f463405cdfbe4e90a6d2df01c2b92bf1",
        "prev_balance": "0",
        "prev_block_height": 11000000,
        "next_balance": "1301526037413492565223390",
        "next_block_height": 12263776,
        "diff": "1301526037413492565223390"
      },
      {
        "token_holder": "0x5142a43c30c754669e599d925caef24bf7f506f7",
        "prev_balance": "2192100686688230000000000",
        "prev_block_height": 11000000,
        "next_balance": "1192090686688230000000000",
        "next_block_height": 12263776,
        "diff": "-1000010000000000000000000"
      },
      {
        "token_holder": "0xa4628eb4a74ee7aa15708f1ec0d7f6912b7fd0cf",
        "prev_balance": "0",
        "prev_block_height": 11000000,
        "next_balance": "1114774676379260000000000",
        "next_block_height": 12263776,
        "diff": "1114774676379260000000000"
      },
      {
        "token_holder": "0x8d6f396d210d385033b348bcae9e4f9ea4e045bd",
        "prev_balance": "0",
        "prev_block_height": 11000000,
        "next_balance": "1100000000000000000000000",
        "next_block_height": 12263776,
        "diff": "1100000000000000000000000"
      },
      {
        "token_holder": "0x1494ca1f11d487c2bbe4543e90080aeba4ba3c2b",
        "prev_balance": "75435972984848547416322",
        "prev_block_height": 11000000,
        "next_balance": "1093484588695611518157876",
        "next_block_height": 12263776,
        "diff": "1018048615710762970741554"
      },
      {
        "token_holder": "0x5f65f7b609678448494de4c87521cdf6cef1e932",
        "prev_balance": "253172020202938049885265",
        "prev_block_height": 11000000,
        "next_balance": "1088539020921040086775775",
        "next_block_height": 12263776,
        "diff": "835367000718102036890510"
      },
      {
        "token_holder": "0x2faf487a4414fe77e2327f0bf4ae2a264a776ad2",
        "prev_balance": "273268384059141558853325",
        "prev_block_height": 11000000,
        "next_balance": "1038382991813662547447771",
        "next_block_height": 12263776,
        "diff": "765114607754520988594446"
      },
      {
        "token_holder": "0x45628522c38096959fdb07ec6b51d0e158685e24",
        "prev_balance": "0",
        "prev_block_height": 11000000,
        "next_balance": "1005790436491000000000000",
        "next_block_height": 12263776,
        "diff": "1005790436491000000000000"
      },
      {
        "token_holder": "0x2fd0eb27494d7a336574919fc670c05adbf65c80",
        "prev_balance": "0",
        "prev_block_height": 11000000,
        "next_balance": "1000000000000000000000000",
        "next_block_height": 12263776,
        "diff": "1000000000000000000000000"
      },
      {
        "token_holder": "0x55fc36e37ee5c04df5803a9a48b9134b26dd167c",
        "prev_balance": "1000000000000000000000000",
        "prev_block_height": 11000000,
        "next_balance": "1000000000000000000000000",
        "next_block_height": 12263776,
        "diff": "0"
      },
      {
        "token_holder": "0xcce4158494ae8296e3936823058b17e03eeba6c3",
        "prev_balance": "975263726248809240263029",
        "prev_block_height": 11000000,
        "next_balance": "950016000000000000000000",
        "next_block_height": 12263776,
        "diff": "-25247726248809240263029"
      },
      {
        "token_holder": "0x6fdabcd4c1b926310f5a8c4c00efefba3c8dbef4",
        "prev_balance": "909281912737000000000000",
        "prev_block_height": 11000000,
        "next_balance": "861281912737000000000000",
        "next_block_height": 12263776,
        "diff": "-48000000000000000000000"
      },
      {
        "token_holder": "0xf369af914dbed0ad7afdddebc631ee0fda1b4891",
        "prev_balance": "886506503344000000000000",
        "prev_block_height": 11000000,
        "next_balance": "820000000030000000000000",
        "next_block_height": 12263776,
        "diff": "-66506503314000000000000"
      },
      {
        "token_holder": "0xf54b90a4a529ee43d924d5131c09c760a5cb129c",
        "prev_balance": "1600000000000000000000000",
        "prev_block_height": 11000000,
        "next_balance": "800000005000000000000000",
        "next_block_height": 12263776,
        "diff": "-799999995000000000000000"
      },
      {
        "token_holder": "0xeb3b9f824c8551a58a427aeaaa1044866bb5e28e",
        "prev_balance": "0",
        "prev_block_height": 11000000,
        "next_balance": "800000000000000000000000",
        "next_block_height": 12263776,
        "diff": "800000000000000000000000"
      },
      {
        "token_holder": "0x9051c628aac814c7e125afda77a76d4773658360",
        "prev_balance": "800000000000000000000000",
        "prev_block_height": 11000000,
        "next_balance": "799996000000000000000000",
        "next_block_height": 12263776,
        "diff": "-4000000000000000000"
      },
      {
        "token_holder": "0x24ac3daae45591a2df3bf57333aef17bb1d424d7",
        "prev_balance": "0",
        "prev_block_height": 11000000,
        "next_balance": "750000000000000000000000",
        "next_block_height": 12263776,
        "diff": "750000000000000000000000"
      },
      {
        "token_holder": "0xb947458128d182c76a270c3fadaf4441e5e37fa2",
        "prev_balance": "718008960000000000000000",
        "prev_block_height": 11000000,
        "next_balance": "718007915000000000000000",
        "next_block_height": 12263776,
        "diff": "-1045000000000000000"
      }
    ],
    "pagination": {
      "has_more": true,
      "page_number": 0,
      "page_size": 100,
      "total_count": 215584
    }
  },
  "error": false,
  "error_message": null,
  "error_code": null
}